;komentar
;visinske tacke objekata koji se nalaze na trasi DV
;svaki red predstavlja jedan objekat
;u svakom redu visinske tacke su predstavljene parom podataka stacionaza-kota tacka
    182.24    348.24    190.10    348.24    
    195.24    347.38    196.88    349.81    201.03    349.81    203.63    347.38
    207.18    348.98
    509.64    324.26

















































































































































































































































































































































































































































































































































































































































































































































































































































































































































































































































































































































































































































































































































































































































































































































































































































































































































































































































































































































































































































































































































































































































































































































































































































































































































































































































































































































































































































































































































































































































































































